%YAML 1.1
%TAG !u! tag:unity3d.com,2011:
--- !u!114 &11400000
MonoBehaviour:
  m_ObjectHideFlags: 0
  m_CorrespondingSourceObject: {fileID: 0}
  m_PrefabInstance: {fileID: 0}
  m_PrefabAsset: {fileID: 0}
  m_GameObject: {fileID: 0}
  m_Enabled: 1
  m_EditorHideFlags: 0
  m_Script: {fileID: 11500000, guid: 1a83921562c138f43bcfafd514478ac1, type: 3}
  m_Name: Pipe_DownPrefab Factory
  m_EditorClassIdentifier: 
  prefab: {fileID: 6818081908325583667, guid: cc96b9c4f06190b48956ad640bbd3db8, type: 3}
