%YAML 1.1
%TAG !u! tag:unity3d.com,2011:
--- !u!114 &11400000
MonoBehaviour:
  m_ObjectHideFlags: 0
  m_CorrespondingSourceObject: {fileID: 0}
  m_PrefabInstance: {fileID: 0}
  m_PrefabAsset: {fileID: 0}
  m_GameObject: {fileID: 0}
  m_Enabled: 1
  m_EditorHideFlags: 0
  m_Script: {fileID: 11500000, guid: be347f72455793846a1eeefb7113bbb9, type: 3}
  m_Name: SpawnSystem
  m_EditorClassIdentifier: 
  _initializeSpawnOnStart: 1
  _isSpawnSystemMovable: 1
  _systemMovementSpeed:
    useConstant: 0
    constantValue: 0
    variable: {fileID: 11400000, guid: 475d908f5b75a5541ae4fe365219791f, type: 2}
  _baseSpawnDelay:
    useConstant: 0
    constantValue: 0
    variable: {fileID: 11400000, guid: 29959825e9ba19e4d970136d9359db5c, type: 2}
  _spawnDelay: {fileID: 11400000, guid: 29959825e9ba19e4d970136d9359db5c, type: 2}
  _prefabsFactories:
  - {fileID: 11400000, guid: 3f92c7b6f168c124daa8b18aaa9396d5, type: 2}
  - {fileID: 11400000, guid: 1ee61b19de85ec243b6072d9da40aee3, type: 2}
