%YAML 1.1
%TAG !u! tag:unity3d.com,2011:
--- !u!114 &11400000
MonoBehaviour:
  m_ObjectHideFlags: 0
  m_CorrespondingSourceObject: {fileID: 0}
  m_PrefabInstance: {fileID: 0}
  m_PrefabAsset: {fileID: 0}
  m_GameObject: {fileID: 0}
  m_Enabled: 1
  m_EditorHideFlags: 0
  m_Script: {fileID: 11500000, guid: 40d5f0d37d78f7a41b4fd184804b2355, type: 3}
  m_Name: GravityScale
  m_EditorClassIdentifier: 
  developerDescription: 'Value used to change gravity scale of

    player rigid
    body 2d'
  value: 0.4
